…
#compute top 12 cities
top_12 <- rent%>%
  count(city, sort = TRUE)
top_12

## # A tibble: 104 × 2
##    city              n
##    <chr>         <int>
##  1 san francisco 55730
##  2 san jose      13733
##  3 oakland        9443
##  4 santa rosa     6230
##  5 santa cruz     5464
##  6 san mateo      5127
##  7 sunnyvale      4526
##  8 mountain view  4414
##  9 berkeley       4201
## 10 santa clara    4171
## # … with 94 more rows
…
top_12_all_data <- rent%>%
  filter(city %in% c(top_12$city)) #c(top_12$city) is a vector with all the 12 city names 
top_12_all_data

## # A tibble: 120,406 × 17
##    post_id         date  year nhood city  county price  beds baths  sqft room_…¹
##    <chr>          <dbl> <dbl> <chr> <chr> <chr>  <dbl> <dbl> <dbl> <dbl>   <dbl>
##  1 pre2013_1165… 2.00e7  2001 alam… san … san f…  1300     1    NA    NA       0
##  2 pre2013_97296 2.00e7  2004 alam… san … san f…  1450     1    NA    NA       0
##  3 pre2013_1170… 2.00e7  2001 alam… san … san f…  2350     2     1    NA       0
##  4 pre2013_1169… 2.00e7  2001 alam… san … san f…  3100     4    NA  1900       0
##  5 pre2013_1171… 2.00e7  2002 alam… san … san f…  1195     0    NA    NA       0
##  6 pre2013_1171… 2.00e7  2002 alam… san … san f…  1200     0    NA    NA       0
##  7 pre2013_1171… 2.00e7  2002 alam… san … san f…  2550     3     2  1432       0
##  8 pre2013_4558  2.01e7  2008 alam… san … san f…  2200     1    NA   900       0
##  9 pre2013_71323 2.01e7  2012 alam… san … san f…  1645    NA    NA    NA       0
## 10 pre2013_82415 2.01e7  2006 alam… san … san f…  5900     4    NA    NA       0
## # … with 120,396 more rows, 6 more variables: address <chr>, lat <dbl>,
## #   lon <dbl>, title <chr>, descr <chr>, details <chr>, and abbreviated
## #   variable name ¹​room_in_apt

#now we have filtered the rent data set for just the top 12 cities

calc_median <- top_12_all_data%>%
  group_by(beds, city, year)%>%
  summarize(median_price = median(price))%>%
  filter(beds <= 2)%>%
  mutate(pct_change = (median_price-lag(median_price))/lag(median_price),
         pct_change = ifelse(is.na(pct_change), 0, pct_change),
         cum_pct_change = cumsum(pct_change)) #why does cumprod not work ???
calc_median

## # A tibble: 610 × 6
## # Groups:   beds, city [36]
##     beds city      year median_price pct_change cum_pct_change
##    <dbl> <chr>    <dbl>        <dbl>      <dbl>          <dbl>
##  1     0 berkeley  2001        1148.     0             0      
##  2     0 berkeley  2002        1000     -0.129        -0.129  
##  3     0 berkeley  2003         888.    -0.112        -0.241  
##  4     0 berkeley  2004         825     -0.0704       -0.311  
##  5     0 berkeley  2005         850      0.0303       -0.281  
##  6     0 berkeley  2006         900      0.0588       -0.222  
##  7     0 berkeley  2007         950      0.0556       -0.167  
##  8     0 berkeley  2008        1048.     0.103        -0.0641 
##  9     0 berkeley  2009        1100      0.0501       -0.0140 
## 10     0 berkeley  2010        1125      0.0227        0.00870
## # … with 600 more rows
…
